{
  "images" : [
    {
      "idiom" : "iphone",
      "scale" : "1x"
    },
    {
      "idiom" : "iphone",
      "filename" : "facebook_btn_off@2x-1.png",
      "scale" : "2x"
    },
    {
      "idiom" : "iphone",
      "filename" : "continue_with_facebook_btn_off@3x.png",
      "scale" : "3x"
    }
  ],
  "info" : {
    "version" : 1,
    "author" : "xcode"
  }
}